z	eval	reval	diff	rdiff	integ	rinteg
0.06	0.059376	0.059964	0.9896	0.998201	0.00118752	0.00179946
0.12	0.118752	0.119712	0.9896	0.992809	0.00475008	0.00719136
0.18	0.178128	0.17903	0.9896	0.983844	0.0106877	0.0161563
0.24	0.237504	0.237703	0.9896	0.971338	0.0190003	0.028662
0.3	0.296533	0.29552	0.969022	0.955336	0.0441139	0.0446635
0.36	0.353692	0.352274	0.936288	0.935897	0.0620364	0.0641032
0.42	0.408888	0.40776	0.903553	0.913089	0.082134	0.0869111
0.48	0.462119	0.461779	0.870819	0.886995	0.104289	0.113005
0.54	0.513496	0.514136	0.84357	0.857709	0.14212	0.142291
0.6	0.563375	0.564642	0.819063	0.825336	0.17323	0.174664
0.66	0.611783	0.613117	0.794556	0.789992	0.206256	0.210008
0.72	0.658721	0.659385	0.770049	0.751806	0.241111	0.248194
0.78	0.703946	0.703279	0.729364	0.710914	0.288826	0.289086
0.84	0.746002	0.744643	0.672499	0.667463	0.331432	0.332537
0.9	0.784646	0.783327	0.615634	0.62161	0.37555	0.37839
0.96	0.819878	0.819192	0.55877	0.57352	0.420975	0.42648
1.02	0.851743	0.852108	0.506331	0.523366	0.476674	0.476634
1.08	0.880815	0.881958	0.462745	0.471328	0.528143	0.528672
1.14	0.907272	0.908633	0.41916	0.417595	0.580653	0.582405
1.2	0.931114	0.932039	0.375574	0.362358	0.634047	0.637642
1.26	0.952319	0.95209	0.327635	0.305817	0.69403	0.694183
1.32	0.969886	0.968715	0.257933	0.248175	0.751446	0.751825
1.38	0.983271	0.981854	0.188232	0.189641	0.809383	0.810359
1.44	0.992474	0.991458	0.11853	0.130424	0.867591	0.869576
1.5	0.997495	0.997495	0.048828	0.0707372	0.929352	0.929263
1.56	0.998943	0.999942	-0.00054672	0.0107961	0.989231	0.989204
1.62	0.997429	0.99879	-0.0499214	-0.0491838	1.04905	1.04918
1.68	0.992953	0.994043	-0.0992962	-0.108987	1.10863	1.10899
1.74	0.985514	0.985719	-0.148671	-0.168397	1.16779	1.1684
1.8	0.974722	0.973848	-0.213642	-0.227202	1.22715	1.2272
1.86	0.959861	0.958471	-0.281733	-0.285189	1.28546	1.28519
1.92	0.940914	0.939645	-0.349824	-0.34215	1.34295	1.34215
1.98	0.917882	0.917438	-0.417915	-0.397879	1.39936	1.39788
2.04	0.891133	0.891929	-0.467583	-0.452176	1.45238	1.45218
2.1	0.861864	0.863209	-0.508039	-0.504846	1.5056	1.50485
2.16	0.830168	0.831383	-0.548496	-0.555699	1.55751	1.5557
2.22	0.796045	0.796565	-0.588952	-0.604552	1.60799	1.60455
2.28	0.759404	0.758881	-0.635394	-0.65123	1.6512	1.65123
2.34	0.719708	0.718465	-0.687821	-0.695563	1.69632	1.69556
2.4	0.676866	0.675463	-0.740249	-0.737394	1.7397	1.73739
2.46	0.630878	0.630031	-0.792676	-0.77657	1.78114	1.77657
2.52	0.581856	0.582331	-0.833967	-0.812952	1.81311	1.81295
2.58	0.531248	0.532535	-0.852982	-0.846408	1.84734	1.84641
2.64	0.479498	0.480823	-0.871998	-0.876818	1.87949	1.87682
2.7	0.426608	0.42738	-0.891014	-0.904072	1.90949	1.90407
2.76	0.37257	0.372399	-0.911284	-0.928073	1.92797	1.92807
2.82	0.317097	0.316078	-0.93783	-0.948733	1.94939	1.94873
2.88	0.260031	0.258619	-0.964376	-0.965979	1.96853	1.96598
2.94	0.201372	0.20023	-0.990922	-0.979749	1.98528	1.97975
3	0.14112	0.14112	-1.01747	-0.989992	1.9901	1.98999
3.06	0.0803629	0.0815022	-1.00777	-0.996673	1.99736	1.99667
