x	y	dy
0.100   12.644	0.858
0.145   9.235	0.359
0.211   7.377	0.505
0.307   6.460	0.403  
0.447   5.555	0.683
0.649   5.896	0.605
0.944   5.673	0.856
1.372   6.964	0.351
1.995   8.896	1.083
2.900	11.355	1.002







   
   
   
 
   
   
   
   
   



   
   
   
   
   
   
   
   
  




