0.05 	 21.9327 
0.1 	 12.2728 
0.15 	 9.15359 
0.2 	 7.66955 
0.25 	 6.83959 
0.3 	 6.33666 
0.35 	 6.0206 
0.4 	 5.82134 
0.45 	 5.69995 
0.5 	 5.63306 
0.55 	 5.60582 
0.6 	 5.6083 
0.65 	 5.63366 
0.7 	 5.67698 
0.75 	 5.73468 
0.8 	 5.80406 
0.85 	 5.88305 
0.9 	 5.97006 
0.95 	 6.06383 
1 	 6.16333 
1.05 	 6.26774 
1.1 	 6.37641 
1.15 	 6.48876 
1.2 	 6.60435 
1.25 	 6.72279 
1.3 	 6.84374 
1.35 	 6.96692 
1.4 	 7.0921 
1.45 	 7.21907 
1.5 	 7.34765 
1.55 	 7.47769 
1.6 	 7.60905 
1.65 	 7.7416 
1.7 	 7.87525 
1.75 	 8.0099 
1.8 	 8.14546 
1.85 	 8.28187 
1.9 	 8.41905 
1.95 	 8.55694 
2 	 8.6955 
2.05 	 8.83467 
2.1 	 8.97441 
2.15 	 9.11469 
2.2 	 9.25545 
2.25 	 9.39668 
2.3 	 9.53834 
2.35 	 9.6804 
2.4 	 9.82283 
2.45 	 9.96563 
2.5 	 10.1088 
2.55 	 10.2522 
2.6 	 10.3959 
2.65 	 10.54 
2.7 	 10.6842 
2.75 	 10.8288 
2.8 	 10.9735 
2.85 	 11.1185 
2.9 	 11.2637 
2.95 	 11.4091 
3 	 11.5547 
3.05 	 11.7005 
3.1 	 11.8464 
3.15 	 11.9925 
3.2 	 12.1388 
3.25 	 12.2852 
3.3 	 12.4318 
3.35 	 12.5785 
3.4 	 12.7253 
3.45 	 12.8723 
3.5 	 13.0194 
3.55 	 13.1665 
3.6 	 13.3138 
3.65 	 13.4612 
3.7 	 13.6088 
3.75 	 13.7564 
3.8 	 13.904 
3.85 	 14.0518 
3.9 	 14.1997 
3.95 	 14.3477 
4 	 14.4957 
4.05 	 14.6438 
4.1 	 14.792 
4.15 	 14.9402 
4.2 	 15.0885 
4.25 	 15.2369 
4.3 	 15.3854 
4.35 	 15.5339 
4.4 	 15.6825 
4.45 	 15.8311 
4.5 	 15.9798 
4.55 	 16.1285 
4.6 	 16.2773 
4.65 	 16.4262 
4.7 	 16.5751 
4.75 	 16.724 
4.8 	 16.873 
4.85 	 17.022 
4.9 	 17.1711 
4.95 	 17.3202 
5 	 17.4694 
